{
  "href": "https://api.spotify.com/v1/me/tracks?offset=0&limit=3",
  "items": [
    {
      "added_at": "2022-05-15T08:20:52Z",
      "track": {
        "album": {
          "album_type": "single",
          "artists": [
            {
              "external_urls": {
                "spotify": "https://open.spotify.com/artist/27gtK7m9vYwCyJ04zz0kIb"
              },
              "href": "https://api.spotify.com/v1/artists/27gtK7m9vYwCyJ04zz0kIb",
              "id": "27gtK7m9vYwCyJ04zz0kIb",
              "name": "Lane 8",
              "type": "artist",
              "uri": "spotify:artist:27gtK7m9vYwCyJ04zz0kIb"
            },
            {
              "external_urls": {
                "spotify": "https://open.spotify.com/artist/4dHGNdVhBxCJUyMk9dR727"
              },
              "href": "https://api.spotify.com/v1/artists/4dHGNdVhBxCJUyMk9dR727",
              "id": "4dHGNdVhBxCJUyMk9dR727",
              "name": "Julia Church",
              "type": "artist",
              "uri": "spotify:artist:4dHGNdVhBxCJUyMk9dR727"
            }
          ],
          "available_markets": [
            "AD",
            "AE",
            "AG",
            "AL",
            "AM",
            "AO",
            "AR",
            "AT",
            "AU",
            "AZ",
            "BA",
            "BB",
            "BD",
            "BE",
            "BF",
            "BG",
            "BH",
            "BI",
            "BJ",
            "BN",
            "BO",
            "BR",
            "BS",
            "BT",
            "BW",
            "BY",
            "BZ",
            "CA",
            "CD",
            "CG",
            "CH",
            "CI",
            "CL",
            "CM",
            "CO",
            "CR",
            "CV",
            "CW",
            "CY",
            "CZ",
            "DE",
            "DJ",
            "DK",
            "DM",
            "DO",
            "DZ",
            "EC",
            "EE",
            "EG",
            "ES",
            "FI",
            "FJ",
            "FM",
            "FR",
            "GA",
            "GB",
            "GD",
            "GE",
            "GH",
            "GM",
            "GN",
            "GQ",
            "GR",
            "GT",
            "GW",
            "GY",
            "HK",
            "HN",
            "HR",
            "HT",
            "HU",
            "ID",
            "IE",
            "IL",
            "IN",
            "IQ",
            "IS",
            "IT",
            "JM",
            "JO",
            "JP",
            "KE",
            "KG",
            "KH",
            "KI",
            "KM",
            "KN",
            "KR",
            "KW",
            "KZ",
            "LA",
            "LB",
            "LC",
            "LI",
            "LK",
            "LR",
            "LS",
            "LT",
            "LU",
            "LV",
            "LY",
            "MA",
            "MC",
            "MD",
            "ME",
            "MG",
            "MH",
            "MK",
            "ML",
            "MN",
            "MO",
            "MR",
            "MT",
            "MU",
            "MV",
            "MW",
            "MX",
            "MY",
            "MZ",
            "NA",
            "NE",
            "NG",
            "NI",
            "NL",
            "NO",
            "NP",
            "NR",
            "NZ",
            "OM",
            "PA",
            "PE",
            "PG",
            "PH",
            "PK",
            "PL",
            "PS",
            "PT",
            "PW",
            "PY",
            "QA",
            "RO",
            "RS",
            "RW",
            "SA",
            "SB",
            "SC",
            "SE",
            "SG",
            "SI",
            "SK",
            "SL",
            "SM",
            "SN",
            "SR",
            "ST",
            "SV",
            "SZ",
            "TD",
            "TG",
            "TH",
            "TJ",
            "TL",
            "TN",
            "TO",
            "TR",
            "TT",
            "TV",
            "TW",
            "TZ",
            "UA",
            "UG",
            "US",
            "UY",
            "UZ",
            "VC",
            "VE",
            "VN",
            "VU",
            "WS",
            "XK",
            "ZA",
            "ZM",
            "ZW"
          ],
          "external_urls": {
            "spotify": "https://open.spotify.com/album/4qf7IxbVrv9eLCGpCA8Asu"
          },
          "href": "https://api.spotify.com/v1/albums/4qf7IxbVrv9eLCGpCA8Asu",
          "id": "4qf7IxbVrv9eLCGpCA8Asu",
          "images": [
            {
              "height": 640,
              "url": "https://i.scdn.co/image/ab67616d0000b273494920d95576ab7927835f52",
              "width": 640
            },
            {
              "height": 300,
              "url": "https://i.scdn.co/image/ab67616d00001e02494920d95576ab7927835f52",
              "width": 300
            },
            {
              "height": 64,
              "url": "https://i.scdn.co/image/ab67616d00004851494920d95576ab7927835f52",
              "width": 64
            }
          ],
          "name": "Oh, Miles",
          "release_date": "2021-01-14",
          "release_date_precision": "day",
          "total_tracks": 1,
          "type": "album",
          "uri": "spotify:album:4qf7IxbVrv9eLCGpCA8Asu"
        },
        "artists": [
          {
            "external_urls": {
              "spotify": "https://open.spotify.com/artist/27gtK7m9vYwCyJ04zz0kIb"
            },
            "href": "https://api.spotify.com/v1/artists/27gtK7m9vYwCyJ04zz0kIb",
            "id": "27gtK7m9vYwCyJ04zz0kIb",
            "name": "Lane 8",
            "type": "artist",
            "uri": "spotify:artist:27gtK7m9vYwCyJ04zz0kIb"
          },
          {
            "external_urls": {
              "spotify": "https://open.spotify.com/artist/4dHGNdVhBxCJUyMk9dR727"
            },
            "href": "https://api.spotify.com/v1/artists/4dHGNdVhBxCJUyMk9dR727",
            "id": "4dHGNdVhBxCJUyMk9dR727",
            "name": "Julia Church",
            "type": "artist",
            "uri": "spotify:artist:4dHGNdVhBxCJUyMk9dR727"
          }
        ],
        "available_markets": [
          "AD",
          "AE",
          "AG",
          "AL",
          "AM",
          "AO",
          "AR",
          "AT",
          "AU",
          "AZ",
          "BA",
          "BB",
          "BD",
          "BE",
          "BF",
          "BG",
          "BH",
          "BI",
          "BJ",
          "BN",
          "BO",
          "BR",
          "BS",
          "BT",
          "BW",
          "BY",
          "BZ",
          "CA",
          "CD",
          "CG",
          "CH",
          "CI",
          "CL",
          "CM",
          "CO",
          "CR",
          "CV",
          "CW",
          "CY",
          "CZ",
          "DE",
          "DJ",
          "DK",
          "DM",
          "DO",
          "DZ",
          "EC",
          "EE",
          "EG",
          "ES",
          "FI",
          "FJ",
          "FM",
          "FR",
          "GA",
          "GB",
          "GD",
          "GE",
          "GH",
          "GM",
          "GN",
          "GQ",
          "GR",
          "GT",
          "GW",
          "GY",
          "HK",
          "HN",
          "HR",
          "HT",
          "HU",
          "ID",
          "IE",
          "IL",
          "IN",
          "IQ",
          "IS",
          "IT",
          "JM",
          "JO",
          "JP",
          "KE",
          "KG",
          "KH",
          "KI",
          "KM",
          "KN",
          "KR",
          "KW",
          "KZ",
          "LA",
          "LB",
          "LC",
          "LI",
          "LK",
          "LR",
          "LS",
          "LT",
          "LU",
          "LV",
          "LY",
          "MA",
          "MC",
          "MD",
          "ME",
          "MG",
          "MH",
          "MK",
          "ML",
          "MN",
          "MO",
          "MR",
          "MT",
          "MU",
          "MV",
          "MW",
          "MX",
          "MY",
          "MZ",
          "NA",
          "NE",
          "NG",
          "NI",
          "NL",
          "NO",
          "NP",
          "NR",
          "NZ",
          "OM",
          "PA",
          "PE",
          "PG",
          "PH",
          "PK",
          "PL",
          "PS",
          "PT",
          "PW",
          "PY",
          "QA",
          "RO",
          "RS",
          "RW",
          "SA",
          "SB",
          "SC",
          "SE",
          "SG",
          "SI",
          "SK",
          "SL",
          "SM",
          "SN",
          "SR",
          "ST",
          "SV",
          "SZ",
          "TD",
          "TG",
          "TH",
          "TJ",
          "TL",
          "TN",
          "TO",
          "TR",
          "TT",
          "TV",
          "TW",
          "TZ",
          "UA",
          "UG",
          "US",
          "UY",
          "UZ",
          "VC",
          "VE",
          "VN",
          "VU",
          "WS",
          "XK",
          "ZA",
          "ZM",
          "ZW"
        ],
        "disc_number": 1,
        "duration_ms": 333870,
        "explicit": false,
        "external_ids": {
          "isrc": "GBEWA2100010"
        },
        "external_urls": {
          "spotify": "https://open.spotify.com/track/61Hn9ssQkVEWq4ZmPwHyzd"
        },
        "href": "https://api.spotify.com/v1/tracks/61Hn9ssQkVEWq4ZmPwHyzd",
        "id": "61Hn9ssQkVEWq4ZmPwHyzd",
        "is_local": false,
        "name": "Oh, Miles",
        "popularity": 55,
        "preview_url": "https://p.scdn.co/mp3-preview/5cd81184f0a56481000fc41621eb73d4e6ed3d3e?cid=3041f34cf22c46349d0c80148946aee6",
        "track_number": 1,
        "type": "track",
        "uri": "spotify:track:61Hn9ssQkVEWq4ZmPwHyzd"
      }
    },
    {
      "added_at": "2022-05-15T08:20:39Z",
      "track": {
        "album": {
          "album_type": "single",
          "artists": [
            {
              "external_urls": {
                "spotify": "https://open.spotify.com/artist/28j8lBWDdDSHSSt5oPlsX2"
              },
              "href": "https://api.spotify.com/v1/artists/28j8lBWDdDSHSSt5oPlsX2",
              "id": "28j8lBWDdDSHSSt5oPlsX2",
              "name": "ZHU",
              "type": "artist",
              "uri": "spotify:artist:28j8lBWDdDSHSSt5oPlsX2"
            },
            {
              "external_urls": {
                "spotify": "https://open.spotify.com/artist/1ikID9RZZMvkuBGDWrqajq"
              },
              "href": "https://api.spotify.com/v1/artists/1ikID9RZZMvkuBGDWrqajq",
              "id": "1ikID9RZZMvkuBGDWrqajq",
              "name": "Kasbo",
              "type": "artist",
              "uri": "spotify:artist:1ikID9RZZMvkuBGDWrqajq"
            }
          ],
          "available_markets": [
            "AD",
            "AE",
            "AG",
            "AL",
            "AM",
            "AO",
            "AR",
            "AT",
            "AU",
            "AZ",
            "BA",
            "BB",
            "BD",
            "BE",
            "BF",
            "BG",
            "BH",
            "BI",
            "BJ",
            "BN",
            "BO",
            "BR",
            "BS",
            "BT",
            "BW",
            "BZ",
            "CA",
            "CD",
            "CG",
            "CH",
            "CI",
            "CL",
            "CM",
            "CO",
            "CR",
            "CV",
            "CW",
            "CY",
            "CZ",
            "DE",
            "DJ",
            "DK",
            "DM",
            "DO",
            "DZ",
            "EC",
            "EE",
            "EG",
            "ES",
            "FI",
            "FJ",
            "FM",
            "FR",
            "GA",
            "GB",
            "GD",
            "GE",
            "GH",
            "GM",
            "GN",
            "GQ",
            "GR",
            "GT",
            "GW",
            "GY",
            "HK",
            "HN",
            "HR",
            "HT",
            "HU",
            "ID",
            "IE",
            "IL",
            "IN",
            "IQ",
            "IS",
            "IT",
            "JM",
            "JO",
            "JP",
            "KE",
            "KG",
            "KH",
            "KI",
            "KM",
            "KN",
            "KR",
            "KW",
            "KZ",
            "LA",
            "LB",
            "LC",
            "LI",
            "LK",
            "LR",
            "LS",
            "LT",
            "LU",
            "LV",
            "LY",
            "MA",
            "MC",
            "MD",
            "ME",
            "MG",
            "MH",
            "MK",
            "ML",
            "MN",
            "MO",
            "MR",
            "MT",
            "MU",
            "MV",
            "MW",
            "MX",
            "MY",
            "MZ",
            "NA",
            "NE",
            "NG",
            "NI",
            "NL",
            "NO",
            "NP",
            "NR",
            "NZ",
            "OM",
            "PA",
            "PE",
            "PG",
            "PH",
            "PK",
            "PL",
            "PS",
            "PT",
            "PW",
            "PY",
            "QA",
            "RO",
            "RS",
            "RW",
            "SA",
            "SB",
            "SC",
            "SE",
            "SG",
            "SI",
            "SK",
            "SL",
            "SM",
            "SN",
            "SR",
            "ST",
            "SV",
            "SZ",
            "TD",
            "TG",
            "TH",
            "TJ",
            "TL",
            "TN",
            "TO",
            "TR",
            "TT",
            "TV",
            "TW",
            "TZ",
            "UA",
            "UG",
            "US",
            "UY",
            "UZ",
            "VC",
            "VE",
            "VN",
            "VU",
            "WS",
            "XK",
            "ZA",
            "ZM",
            "ZW"
          ],
          "external_urls": {
            "spotify": "https://open.spotify.com/album/08jqKqEdpZBdeSdaraPOM2"
          },
          "href": "https://api.spotify.com/v1/albums/08jqKqEdpZBdeSdaraPOM2",
          "id": "08jqKqEdpZBdeSdaraPOM2",
          "images": [
            {
              "height": 640,
              "url": "https://i.scdn.co/image/ab67616d0000b2735791dfbe2d93c79b4dabef50",
              "width": 640
            },
            {
              "height": 300,
              "url": "https://i.scdn.co/image/ab67616d00001e025791dfbe2d93c79b4dabef50",
              "width": 300
            },
            {
              "height": 64,
              "url": "https://i.scdn.co/image/ab67616d000048515791dfbe2d93c79b4dabef50",
              "width": 64
            }
          ],
          "name": "Sky Is Crying (Kasbo Remix)",
          "release_date": "2022-03-18",
          "release_date_precision": "day",
          "total_tracks": 2,
          "type": "album",
          "uri": "spotify:album:08jqKqEdpZBdeSdaraPOM2"
        },
        "artists": [
          {
            "external_urls": {
              "spotify": "https://open.spotify.com/artist/28j8lBWDdDSHSSt5oPlsX2"
            },
            "href": "https://api.spotify.com/v1/artists/28j8lBWDdDSHSSt5oPlsX2",
            "id": "28j8lBWDdDSHSSt5oPlsX2",
            "name": "ZHU",
            "type": "artist",
            "uri": "spotify:artist:28j8lBWDdDSHSSt5oPlsX2"
          },
          {
            "external_urls": {
              "spotify": "https://open.spotify.com/artist/1ikID9RZZMvkuBGDWrqajq"
            },
            "href": "https://api.spotify.com/v1/artists/1ikID9RZZMvkuBGDWrqajq",
            "id": "1ikID9RZZMvkuBGDWrqajq",
            "name": "Kasbo",
            "type": "artist",
            "uri": "spotify:artist:1ikID9RZZMvkuBGDWrqajq"
          },
          {
            "external_urls": {
              "spotify": "https://open.spotify.com/artist/3kHVioJpVxlazAAKQ64pC1"
            },
            "href": "https://api.spotify.com/v1/artists/3kHVioJpVxlazAAKQ64pC1",
            "id": "3kHVioJpVxlazAAKQ64pC1",
            "name": "Yuna",
            "type": "artist",
            "uri": "spotify:artist:3kHVioJpVxlazAAKQ64pC1"
          }
        ],
        "available_markets": [
          "AD",
          "AE",
          "AG",
          "AL",
          "AM",
          "AO",
          "AR",
          "AT",
          "AU",
          "AZ",
          "BA",
          "BB",
          "BD",
          "BE",
          "BF",
          "BG",
          "BH",
          "BI",
          "BJ",
          "BN",
          "BO",
          "BR",
          "BS",
          "BT",
          "BW",
          "BZ",
          "CA",
          "CD",
          "CG",
          "CH",
          "CI",
          "CL",
          "CM",
          "CO",
          "CR",
          "CV",
          "CW",
          "CY",
          "CZ",
          "DE",
          "DJ",
          "DK",
          "DM",
          "DO",
          "DZ",
          "EC",
          "EE",
          "EG",
          "ES",
          "FI",
          "FJ",
          "FM",
          "FR",
          "GA",
          "GB",
          "GD",
          "GE",
          "GH",
          "GM",
          "GN",
          "GQ",
          "GR",
          "GT",
          "GW",
          "GY",
          "HK",
          "HN",
          "HR",
          "HT",
          "HU",
          "ID",
          "IE",
          "IL",
          "IN",
          "IQ",
          "IS",
          "IT",
          "JM",
          "JO",
          "JP",
          "KE",
          "KG",
          "KH",
          "KI",
          "KM",
          "KN",
          "KR",
          "KW",
          "KZ",
          "LA",
          "LB",
          "LC",
          "LI",
          "LK",
          "LR",
          "LS",
          "LT",
          "LU",
          "LV",
          "LY",
          "MA",
          "MC",
          "MD",
          "ME",
          "MG",
          "MH",
          "MK",
          "ML",
          "MN",
          "MO",
          "MR",
          "MT",
          "MU",
          "MV",
          "MW",
          "MX",
          "MY",
          "MZ",
          "NA",
          "NE",
          "NG",
          "NI",
          "NL",
          "NO",
          "NP",
          "NR",
          "NZ",
          "OM",
          "PA",
          "PE",
          "PG",
          "PH",
          "PK",
          "PL",
          "PS",
          "PT",
          "PW",
          "PY",
          "QA",
          "RO",
          "RS",
          "RW",
          "SA",
          "SB",
          "SC",
          "SE",
          "SG",
          "SI",
          "SK",
          "SL",
          "SM",
          "SN",
          "SR",
          "ST",
          "SV",
          "SZ",
          "TD",
          "TG",
          "TH",
          "TJ",
          "TL",
          "TN",
          "TO",
          "TR",
          "TT",
          "TV",
          "TW",
          "TZ",
          "UA",
          "UG",
          "US",
          "UY",
          "UZ",
          "VC",
          "VE",
          "VN",
          "VU",
          "WS",
          "XK",
          "ZA",
          "ZM",
          "ZW"
        ],
        "disc_number": 1,
        "duration_ms": 214285,
        "explicit": false,
        "external_ids": {
          "isrc": "USUG12200893"
        },
        "external_urls": {
          "spotify": "https://open.spotify.com/track/3RgjEXlZkztwxqZQBGteQo"
        },
        "href": "https://api.spotify.com/v1/tracks/3RgjEXlZkztwxqZQBGteQo",
        "id": "3RgjEXlZkztwxqZQBGteQo",
        "is_local": false,
        "name": "Sky Is Crying (Kasbo Remix)",
        "popularity": 51,
        "preview_url": "https://p.scdn.co/mp3-preview/f7b06e0c988a4c2bc1a08b2a30b84c3ad3105723?cid=3041f34cf22c46349d0c80148946aee6",
        "track_number": 1,
        "type": "track",
        "uri": "spotify:track:3RgjEXlZkztwxqZQBGteQo"
      }
    },
    {
      "added_at": "2022-05-13T20:33:13Z",
      "track": {
        "album": {
          "album_type": "album",
          "artists": [
            {
              "external_urls": {
                "spotify": "https://open.spotify.com/artist/7FtCyCJCJaxabYO7Uyda5B"
              },
              "href": "https://api.spotify.com/v1/artists/7FtCyCJCJaxabYO7Uyda5B",
              "id": "7FtCyCJCJaxabYO7Uyda5B",
              "name": "Cannons",
              "type": "artist",
              "uri": "spotify:artist:7FtCyCJCJaxabYO7Uyda5B"
            }
          ],
          "available_markets": [
            "AD",
            "AE",
            "AG",
            "AL",
            "AM",
            "AO",
            "AR",
            "AT",
            "AU",
            "AZ",
            "BA",
            "BB",
            "BD",
            "BE",
            "BF",
            "BG",
            "BH",
            "BI",
            "BJ",
            "BN",
            "BO",
            "BR",
            "BS",
            "BT",
            "BW",
            "BY",
            "BZ",
            "CA",
            "CD",
            "CG",
            "CH",
            "CI",
            "CL",
            "CM",
            "CO",
            "CR",
            "CV",
            "CW",
            "CY",
            "CZ",
            "DE",
            "DJ",
            "DK",
            "DM",
            "DO",
            "DZ",
            "EC",
            "EE",
            "EG",
            "ES",
            "FI",
            "FJ",
            "FM",
            "FR",
            "GA",
            "GB",
            "GD",
            "GE",
            "GH",
            "GM",
            "GN",
            "GQ",
            "GR",
            "GT",
            "GW",
            "GY",
            "HK",
            "HN",
            "HR",
            "HT",
            "HU",
            "ID",
            "IE",
            "IL",
            "IN",
            "IQ",
            "IS",
            "IT",
            "JM",
            "JO",
            "JP",
            "KE",
            "KG",
            "KH",
            "KI",
            "KM",
            "KN",
            "KR",
            "KW",
            "KZ",
            "LA",
            "LB",
            "LC",
            "LI",
            "LK",
            "LR",
            "LS",
            "LT",
            "LU",
            "LV",
            "LY",
            "MA",
            "MC",
            "MD",
            "ME",
            "MG",
            "MH",
            "MK",
            "ML",
            "MN",
            "MO",
            "MR",
            "MT",
            "MU",
            "MV",
            "MW",
            "MX",
            "MY",
            "MZ",
            "NA",
            "NE",
            "NG",
            "NI",
            "NL",
            "NO",
            "NP",
            "NR",
            "NZ",
            "OM",
            "PA",
            "PE",
            "PG",
            "PH",
            "PK",
            "PL",
            "PS",
            "PT",
            "PW",
            "PY",
            "QA",
            "RO",
            "RS",
            "RW",
            "SA",
            "SB",
            "SC",
            "SE",
            "SG",
            "SI",
            "SK",
            "SL",
            "SM",
            "SN",
            "SR",
            "ST",
            "SV",
            "SZ",
            "TD",
            "TG",
            "TH",
            "TJ",
            "TL",
            "TN",
            "TO",
            "TR",
            "TT",
            "TV",
            "TW",
            "TZ",
            "UA",
            "UG",
            "US",
            "UY",
            "UZ",
            "VC",
            "VE",
            "VN",
            "VU",
            "WS",
            "XK",
            "ZA",
            "ZM",
            "ZW"
          ],
          "external_urls": {
            "spotify": "https://open.spotify.com/album/0pMkbror5DyuBSl5yeUYTn"
          },
          "href": "https://api.spotify.com/v1/albums/0pMkbror5DyuBSl5yeUYTn",
          "id": "0pMkbror5DyuBSl5yeUYTn",
          "images": [
            {
              "height": 640,
              "url": "https://i.scdn.co/image/ab67616d0000b2733bdcdfad8238ed80cad9a199",
              "width": 640
            },
            {
              "height": 300,
              "url": "https://i.scdn.co/image/ab67616d00001e023bdcdfad8238ed80cad9a199",
              "width": 300
            },
            {
              "height": 64,
              "url": "https://i.scdn.co/image/ab67616d000048513bdcdfad8238ed80cad9a199",
              "width": 64
            }
          ],
          "name": "Shadows",
          "release_date": "2019-07-12",
          "release_date_precision": "day",
          "total_tracks": 7,
          "type": "album",
          "uri": "spotify:album:0pMkbror5DyuBSl5yeUYTn"
        },
        "artists": [
          {
            "external_urls": {
              "spotify": "https://open.spotify.com/artist/7FtCyCJCJaxabYO7Uyda5B"
            },
            "href": "https://api.spotify.com/v1/artists/7FtCyCJCJaxabYO7Uyda5B",
            "id": "7FtCyCJCJaxabYO7Uyda5B",
            "name": "Cannons",
            "type": "artist",
            "uri": "spotify:artist:7FtCyCJCJaxabYO7Uyda5B"
          }
        ],
        "available_markets": [
          "AD",
          "AE",
          "AG",
          "AL",
          "AM",
          "AO",
          "AR",
          "AT",
          "AU",
          "AZ",
          "BA",
          "BB",
          "BD",
          "BE",
          "BF",
          "BG",
          "BH",
          "BI",
          "BJ",
          "BN",
          "BO",
          "BR",
          "BS",
          "BT",
          "BW",
          "BY",
          "BZ",
          "CA",
          "CD",
          "CG",
          "CH",
          "CI",
          "CL",
          "CM",
          "CO",
          "CR",
          "CV",
          "CW",
          "CY",
          "CZ",
          "DE",
          "DJ",
          "DK",
          "DM",
          "DO",
          "DZ",
          "EC",
          "EE",
          "EG",
          "ES",
          "FI",
          "FJ",
          "FM",
          "FR",
          "GA",
          "GB",
          "GD",
          "GE",
          "GH",
          "GM",
          "GN",
          "GQ",
          "GR",
          "GT",
          "GW",
          "GY",
          "HK",
          "HN",
          "HR",
          "HT",
          "HU",
          "ID",
          "IE",
          "IL",
          "IN",
          "IQ",
          "IS",
          "IT",
          "JM",
          "JO",
          "JP",
          "KE",
          "KG",
          "KH",
          "KI",
          "KM",
          "KN",
          "KR",
          "KW",
          "KZ",
          "LA",
          "LB",
          "LC",
          "LI",
          "LK",
          "LR",
          "LS",
          "LT",
          "LU",
          "LV",
          "LY",
          "MA",
          "MC",
          "MD",
          "ME",
          "MG",
          "MH",
          "MK",
          "ML",
          "MN",
          "MO",
          "MR",
          "MT",
          "MU",
          "MV",
          "MW",
          "MX",
          "MY",
          "MZ",
          "NA",
          "NE",
          "NG",
          "NI",
          "NL",
          "NO",
          "NP",
          "NR",
          "NZ",
          "OM",
          "PA",
          "PE",
          "PG",
          "PH",
          "PK",
          "PL",
          "PS",
          "PT",
          "PW",
          "PY",
          "QA",
          "RO",
          "RS",
          "RW",
          "SA",
          "SB",
          "SC",
          "SE",
          "SG",
          "SI",
          "SK",
          "SL",
          "SM",
          "SN",
          "SR",
          "ST",
          "SV",
          "SZ",
          "TD",
          "TG",
          "TH",
          "TJ",
          "TL",
          "TN",
          "TO",
          "TR",
          "TT",
          "TV",
          "TW",
          "TZ",
          "UA",
          "UG",
          "US",
          "UY",
          "UZ",
          "VC",
          "VE",
          "VN",
          "VU",
          "WS",
          "XK",
          "ZA",
          "ZM",
          "ZW"
        ],
        "disc_number": 1,
        "duration_ms": 231825,
        "explicit": false,
        "external_ids": {
          "isrc": "USSM12004811"
        },
        "external_urls": {
          "spotify": "https://open.spotify.com/track/4o0LyB69tylqDG6eTGhmig"
        },
        "href": "https://api.spotify.com/v1/tracks/4o0LyB69tylqDG6eTGhmig",
        "id": "4o0LyB69tylqDG6eTGhmig",
        "is_local": false,
        "name": "Fire for You",
        "popularity": 70,
        "preview_url": "https://p.scdn.co/mp3-preview/80cdbebde2fb015cb3a86e46c77bf61622063a28?cid=3041f34cf22c46349d0c80148946aee6",
        "track_number": 2,
        "type": "track",
        "uri": "spotify:track:4o0LyB69tylqDG6eTGhmig"
      }
    }
  ],
  "limit": 3,
  "next": "https://api.spotify.com/v1/me/tracks?offset=3&limit=3",
  "offset": 0,
  "previous": null,
  "total": 2593
}
